{
    "Records": [
        {
            "messageId": "19dd0b57-b21e-4ac1-bd88-01bbb068cb78",
            "receiptHandle": "MessageReceiptHandle",
            "body": "{\"uuid\":\"1234-123-1234\",\"fileName\":\"VERFWRONGFORMAT.json\",\"workflowStep\":\"NOTIFY\",\"workflowResult\":\"FAILURE\"}",
            "attributes": {
                "ApproximateReceiveCount": "1",
                "SentTimestamp": "1523232000000",
                "SenderId": "123456789012",
                "ApproximateFirstReceiveTimestamp": "1523232000001"
            },
            "messageAttributes": {},
            "md5OfBody": "7b270e59b47ff90a553787216d55d91d",
            "eventSource": "aws:sqs",
            "eventSourceARN": "arn:aws:sqs:us-east-1:123456789012:MyQueue",
            "awsRegion": "us-east-1"
        }
    ]
}
